%!PS-Adobe-2.0 EPSF-1.2
%%Creator: MATLAB, The MathWorks, Inc. Version 8.1.0.604 (R2013a). Operating System: Linux 3.8.0-34-generic #49-Ubuntu SMP Tue Nov 12 18:00:10 UTC 2013 x86_64.
%%Title: ./predmae_20131203.eps
%%CreationDate: 12/04/2013  10:29:15
%%DocumentNeededFonts: Helvetica
%%DocumentProcessColors: Cyan Magenta Yellow Black
%%Extensions: CMYK
%%Pages: 1
%%BoundingBox:    22    21   677   411
%%EndComments

%%BeginProlog
% MathWorks dictionary
/MathWorks 160 dict begin
% definition operators
/bdef {bind def} bind def
/ldef {load def} bind def
/xdef {exch def} bdef
/xstore {exch store} bdef
% operator abbreviations
/c  /clip ldef
/cc /concat ldef
/cp /closepath ldef
/gr /grestore ldef
/gs /gsave ldef
/mt /moveto ldef
/np /newpath ldef
/cm /currentmatrix ldef
/sm /setmatrix ldef
/rm /rmoveto ldef
/rl /rlineto ldef
/s {show newpath} bdef
/sc {setcmykcolor} bdef
/sr /setrgbcolor ldef
/sg /setgray ldef
/w /setlinewidth ldef
/j /setlinejoin ldef
/cap /setlinecap ldef
/rc {rectclip} bdef
/rf {rectfill} bdef
% page state control
/pgsv () def
/bpage {/pgsv save def} bdef
/epage {pgsv restore} bdef
/bplot /gsave ldef
/eplot {stroke grestore} bdef
% orientation switch
/portraitMode 0 def /landscapeMode 1 def /rotateMode 2 def
% coordinate system mappings
/dpi2point 0 def
% font control
/FontSize 0 def
/FMS {/FontSize xstore findfont [FontSize 0 0 FontSize neg 0 0]
  makefont setfont} bdef
/reencode {exch dup where {pop load} {pop StandardEncoding} ifelse
  exch dup 3 1 roll findfont dup length dict begin
  { 1 index /FID ne {def}{pop pop} ifelse } forall
  /Encoding exch def currentdict end definefont pop} bdef
/isroman {findfont /CharStrings get /Agrave known} bdef
/FMSR {3 1 roll 1 index dup isroman {reencode} {pop pop} ifelse
  exch FMS} bdef
/csm {1 dpi2point div -1 dpi2point div scale neg translate
 dup landscapeMode eq {pop -90 rotate}
  {rotateMode eq {90 rotate} if} ifelse} bdef
% line types: solid, dotted, dashed, dotdash
/SO { [] 0 setdash } bdef
/DO { [.5 dpi2point mul 4 dpi2point mul] 0 setdash } bdef
/DA { [6 dpi2point mul] 0 setdash } bdef
/DD { [.5 dpi2point mul 4 dpi2point mul 6 dpi2point mul 4
  dpi2point mul] 0 setdash } bdef
% macros for lines and objects
/L {lineto stroke} bdef
/MP {3 1 roll moveto 1 sub {rlineto} repeat} bdef
/AP {{rlineto} repeat} bdef
/PDlw -1 def
/W {/PDlw currentlinewidth def setlinewidth} def
/PP {closepath eofill} bdef
/DP {closepath stroke} bdef
/MR {4 -2 roll moveto dup  0 exch rlineto exch 0 rlineto
  neg 0 exch rlineto closepath} bdef
/FR {MR stroke} bdef
/PR {MR fill} bdef
/L1i {{currentfile picstr readhexstring pop} image} bdef
/tMatrix matrix def
/MakeOval {newpath tMatrix currentmatrix pop translate scale
0 0 1 0 360 arc tMatrix setmatrix} bdef
/FO {MakeOval stroke} bdef
/PO {MakeOval fill} bdef
/PD {currentlinewidth 2 div 0 360 arc fill
   PDlw -1 eq not {PDlw w /PDlw -1 def} if} def
/FA {newpath tMatrix currentmatrix pop translate scale
  0 0 1 5 -2 roll arc tMatrix setmatrix stroke} bdef
/PA {newpath tMatrix currentmatrix pop	translate 0 0 moveto scale
  0 0 1 5 -2 roll arc closepath tMatrix setmatrix fill} bdef
/FAn {newpath tMatrix currentmatrix pop translate scale
  0 0 1 5 -2 roll arcn tMatrix setmatrix stroke} bdef
/PAn {newpath tMatrix currentmatrix pop translate 0 0 moveto scale
  0 0 1 5 -2 roll arcn closepath tMatrix setmatrix fill} bdef
/vradius 0 def /hradius 0 def /lry 0 def
/lrx 0 def /uly 0 def /ulx 0 def /rad 0 def
/MRR {/vradius xdef /hradius xdef /lry xdef /lrx xdef /uly xdef
  /ulx xdef newpath tMatrix currentmatrix pop ulx hradius add uly
  vradius add translate hradius vradius scale 0 0 1 180 270 arc 
  tMatrix setmatrix lrx hradius sub uly vradius add translate
  hradius vradius scale 0 0 1 270 360 arc tMatrix setmatrix
  lrx hradius sub lry vradius sub translate hradius vradius scale
  0 0 1 0 90 arc tMatrix setmatrix ulx hradius add lry vradius sub
  translate hradius vradius scale 0 0 1 90 180 arc tMatrix setmatrix
  closepath} bdef
/FRR {MRR stroke } bdef
/PRR {MRR fill } bdef
/MlrRR {/lry xdef /lrx xdef /uly xdef /ulx xdef /rad lry uly sub 2 div def
  newpath tMatrix currentmatrix pop ulx rad add uly rad add translate
  rad rad scale 0 0 1 90 270 arc tMatrix setmatrix lrx rad sub lry rad
  sub translate rad rad scale 0 0 1 270 90 arc tMatrix setmatrix
  closepath} bdef
/FlrRR {MlrRR stroke } bdef
/PlrRR {MlrRR fill } bdef
/MtbRR {/lry xdef /lrx xdef /uly xdef /ulx xdef /rad lrx ulx sub 2 div def
  newpath tMatrix currentmatrix pop ulx rad add uly rad add translate
  rad rad scale 0 0 1 180 360 arc tMatrix setmatrix lrx rad sub lry rad
  sub translate rad rad scale 0 0 1 0 180 arc tMatrix setmatrix
  closepath} bdef
/FtbRR {MtbRR stroke } bdef
/PtbRR {MtbRR fill } bdef
/stri 6 array def /dtri 6 array def
/smat 6 array def /dmat 6 array def
/tmat1 6 array def /tmat2 6 array def /dif 3 array def
/asub {/ind2 exch def /ind1 exch def dup dup
  ind1 get exch ind2 get sub exch } bdef
/tri_to_matrix {
  2 0 asub 3 1 asub 4 0 asub 5 1 asub
  dup 0 get exch 1 get 7 -1 roll astore } bdef
/compute_transform {
  dmat dtri tri_to_matrix tmat1 invertmatrix 
  smat stri tri_to_matrix tmat2 concatmatrix } bdef
/ds {stri astore pop} bdef
/dt {dtri astore pop} bdef
/db {2 copy /cols xdef /rows xdef mul dup 3 mul string
  currentfile exch readhexstring pop
  dup 0 3 index getinterval /rbmap xdef
  dup 2 index dup getinterval /gbmap xdef
  1 index dup 2 mul exch getinterval /bbmap xdef pop pop}bdef
/it {gs np dtri aload pop moveto lineto lineto cp c
  cols rows 8 compute_transform 
  rbmap gbmap bbmap true 3 colorimage gr}bdef
/il {newpath moveto lineto stroke}bdef
currentdict end def
%%EndProlog

%%BeginSetup
MathWorks begin

0 cap

end
%%EndSetup

%%Page: 1 1
%%BeginPageSetup
%%PageBoundingBox:    22    21   677   411
MathWorks begin
bpage
%%EndPageSetup

%%BeginObject: obj1
bplot

/dpi2point 4.16667 def
portraitMode 0000 1800 csm

   92    87  2730  1624 MR c np
88 dict begin %Colortable dictionary
/c0 { 0.000000 0.000000 0.000000 sr} bdef
/c1 { 1.000000 1.000000 1.000000 sr} bdef
/c2 { 0.900000 0.000000 0.000000 sr} bdef
/c3 { 0.000000 0.820000 0.000000 sr} bdef
/c4 { 0.000000 0.000000 0.800000 sr} bdef
/c5 { 0.910000 0.820000 0.320000 sr} bdef
/c6 { 1.000000 0.260000 0.820000 sr} bdef
/c7 { 0.000000 0.820000 0.820000 sr} bdef
c0
1 j
1 sg
   0    0 3001 1802 PR
2.08333 w
0 1468 2325 0 0 -1468 390 1603 4 MP
PP
-2325 0 0 1468 2325 0 0 -1468 390 1603 5 MP stroke
1.38889 w
DO
0 sg
 390 1603 mt  390  135 L
 390  135 mt  390  135 L
1552 1603 mt 1552  135 L
1552  135 mt 1552  135 L
2715 1603 mt 2715  135 L
2715  135 mt 2715  135 L
 390 1456 mt 2715 1456 L
2715 1456 mt 2715 1456 L
 390 1309 mt 2715 1309 L
2715 1309 mt 2715 1309 L
 390 1162 mt 2715 1162 L
2715 1162 mt 2715 1162 L
 390 1015 mt 2715 1015 L
2715 1015 mt 2715 1015 L
 390  869 mt 2715  869 L
2715  869 mt 2715  869 L
SO
2.08333 w
 390 1603 mt 2715 1603 L
 390 1603 mt  390  135 L
 390 1603 mt  390 1579 L
%%IncludeResource: font Helvetica
/Helvetica /ISOLatin1Encoding 83.3333 FMSR

 300 1692 mt 
(1min) s
1552 1603 mt 1552 1579 L
1462 1692 mt 
(2min) s
2715 1603 mt 2715 1579 L
2625 1692 mt 
(3min) s
 390 1456 mt  413 1456 L
 216 1486 mt 
(0.02) s
 390 1309 mt  413 1309 L
 216 1339 mt 
(0.04) s
 390 1162 mt  413 1162 L
 216 1192 mt 
(0.06) s
 390 1015 mt  413 1015 L
 216 1045 mt 
(0.08) s
 390  869 mt  413  869 L
 263  899 mt 
(0.1) s
gs 390 135 2326 1469 MR c np
8.33333 w
/c8 { 0.000000 1.000000 0.000000 sr} bdef
c8
1163 -239 1162 -366 390 781 3 MP stroke
gr

8.33333 w
c8
 370  781 mt  410  781 L
 390  761 mt  390  801 L
1532  415 mt 1572  415 L
1552  395 mt 1552  435 L
2695  176 mt 2735  176 L
2715  156 mt 2715  196 L
gs 390 135 2326 1469 MR c np
/c9 { 0.000000 0.000000 1.000000 sr} bdef
c9
1163 -62 1162 -159 390 1004 3 MP stroke
gr

c9
0 j
0 -32 -32 0 0 32 32 0 374 988 5 MP
DP
0 -32 -32 0 0 32 32 0 1536 829 5 MP
DP
0 -32 -32 0 0 32 32 0 2699 767 5 MP
DP
gs 390 135 2326 1469 MR c np
/c10 { 1.000000 0.000000 1.000000 sr} bdef
c10
1163 -50 1162 -161 390 1048 3 MP stroke
gr

c10
20 26 -20 26 -20 -26 20 -26 390 1074 5 MP
DP
20 26 -20 26 -20 -26 20 -26 1552 913 5 MP
DP
20 26 -20 26 -20 -26 20 -26 2715 863 5 MP
DP
gs 390 135 2326 1469 MR c np
/c11 { 1.000000 0.000000 0.000000 sr} bdef
c11
1163 -60 1162 -131 390 1195 3 MP stroke
gr

c11
 376 1181 mt  404 1209 L
 404 1181 mt  376 1209 L
1538 1050 mt 1566 1078 L
1566 1050 mt 1538 1078 L
2701  990 mt 2729 1018 L
2729  990 mt 2701 1018 L
gs 390 135 2326 1469 MR c np
/c12 { 0.000000 1.000000 1.000000 sr} bdef
c12
1163 -263 1162 -385 390 971 3 MP stroke
gr

c12
  20   20  390  971 FO
  20   20 1552  586 FO
  20   20 2715  323 FO
gs 390 135 2326 1469 MR c np
gr

0 sg
 178 1124 mt  -90 rotate
(Average MAE) s
90 rotate
%%IncludeResource: font Helvetica
/Helvetica /ISOLatin1Encoding 41.6667 FMSR

 384 1619 mt 
( ) s
2710  150 mt 
( ) s
2.08333 w
%%IncludeResource: font Helvetica
/Helvetica /ISOLatin1Encoding 83.3333 FMSR

 651  247 mt 
(RShift) s
gs 492 156 2122 159 MR c np
8.33333 w
c8
122 0 516 216 2 MP stroke
gs 525 164 105 105 MR c np
 557  216 mt  597  216 L
 577  196 mt  577  236 L
gr

gr

8.33333 w
c8
0 sg
1038  213 mt 
(linear) s
%%IncludeResource: font Helvetica
/Helvetica /ISOLatin1Encoding 66.6667 FMSR

1241  254 mt 
(all) s
gs 492 156 2122 159 MR c np
c9
123 0 902 216 2 MP stroke
gs 911 164 105 105 MR c np
0 -32 -32 0 0 32 32 0 947 200 5 MP
DP
gr

gr

c9
0 sg
%%IncludeResource: font Helvetica
/Helvetica /ISOLatin1Encoding 83.3333 FMSR

1463  213 mt 
(SVR) s
%%IncludeResource: font Helvetica
/Helvetica /ISOLatin1Encoding 66.6667 FMSR

1634  254 mt 
(linear) s
gs 492 156 2122 159 MR c np
c10
122 0 1328 216 2 MP stroke
gs 1337 164 105 105 MR c np
20 26 -20 26 -20 -26 20 -26 1389 242 5 MP
DP
gr

gr

c10
0 sg
%%IncludeResource: font Helvetica
/Helvetica /ISOLatin1Encoding 83.3333 FMSR

1951  213 mt 
(SVR) s
%%IncludeResource: font Helvetica
/Helvetica /ISOLatin1Encoding 66.6667 FMSR

2122  254 mt 
(rbf) s
gs 492 156 2122 159 MR c np
c11
123 0 1815 216 2 MP stroke
gs 1824 164 105 105 MR c np
1862  202 mt 1890  230 L
1890  202 mt 1862  230 L
gr

gr

c11
0 sg
%%IncludeResource: font Helvetica
/Helvetica /ISOLatin1Encoding 83.3333 FMSR

2360  216 mt 
(linear) s
%%IncludeResource: font Symbol
/Symbol /ISOLatin1Encoding 66.6667 FMSR

2563  257 mt 
(d) s
gs 492 156 2122 159 MR c np
c12
123 0 2224 216 2 MP stroke
gs 2234 164 105 105 MR c np
  20   20 2286  216 FO
gr

2.08333 w
gr

2.08333 w
c12

end %%Color Dict

eplot
%%EndObject

epage
end

showpage

%%Trailer
%%EOF
